7. Data Simulation • psborrow2
…
7. Data Simulation

      Source: vignettes/data_simulation.Rmd
      data_simulation.Rmd

This vignette will show the internal functions for generating data
that can be used in simulation studies.

library(psborrow2)

Generating Baseline Data

First we define how to generate baseline data for our study. In its
simplest form we only need to define how many patients are in the arms:
treated internal, control internal, control external.

simple_baseline <- create_baseline_object(
  n_trt_int = 100,
  n_ctrl_int = 50,
  n_ctrl_ext = 100
)

This object defines how the data will be created. To actually
generate a sample, use generate() to produce a
data.frame.

generate(simple_baseline)
#> Simulated Baseline Data
#>   patid ext trt
#> 1     1   0   1
#> 2     2   0   1
#> 3     3   0   1
#> 4     4   0   1
#> 5     5   0   1
#> 6     6   0   1
#>  [ reached 'max' / getOption("max.print") -- omitted 244 rows ]
…
